Tidy Data
…
Remove columns Xloc and Yloc

jura <- jura |> select(-c(Xloc:Yloc))

print(jura)

## # A tibble: 100 × 11
##     long   lat Landuse Rock            Cd    Co    Cr    Cu    Ni    Pb    Zn
##    <dbl> <dbl> <fct>   <fct>        <dbl> <dbl> <dbl> <dbl> <dbl> <dbl> <dbl>
##  1  6.85  47.1 Meadow  Quaternary   1.57   8.28  37.1 18.6   18.6  38.2  65.2
##  2  6.87  47.2 Meadow  Argovian     2.04  10.8   40.8 11.5   21.5  33.4 113. 
##  3  6.87  47.2 Pasture Argovian     1.20  12     53.2 13.0   23.9  26.6  91.6
##  4  6.86  47.1 Pasture Quaternary   0.49  10.9   23.4  5.64  14.6  25.9  41.2
##  5  6.84  47.1 Meadow  Sequanian    0.692  8.12  27.2 10.3   14.6  31.2  50.4
##  6  6.87  47.1 Forest  Kimmeridgian 1.75   9.12  35.5  8.36  26.4  37.7  63.2
##  7  6.85  47.1 Forest  Kimmeridgian 0.415  9.12  30.3  4.44  24.2  41    53.2
##  8  6.87  47.1 Pasture Sequanian    0.685 11.7   31.9 10.9   13.1  30.8  49.3
##  9  6.85  47.1 Meadow  Kimmeridgian 0.92  10.6   49.0 30.3   31.5  68.1 103. 
## 10  6.87  47.1 Forest  Kimmeridgian 2.12   6.36  23    7.35  14.5  54.4  72.4
## # ℹ 90 more rows
…
Lengthening Data

Lengthening Data

Wide data frame

jura

## # A tibble: 100 × 11
##     long   lat Landuse Rock            Cd    Co    Cr    Cu    Ni    Pb    Zn
##    <dbl> <dbl> <fct>   <fct>        <dbl> <dbl> <dbl> <dbl> <dbl> <dbl> <dbl>
##  1  6.85  47.1 Meadow  Quaternary   1.57   8.28  37.1 18.6   18.6  38.2  65.2
##  2  6.87  47.2 Meadow  Argovian     2.04  10.8   40.8 11.5   21.5  33.4 113. 
##  3  6.87  47.2 Pasture Argovian     1.20  12     53.2 13.0   23.9  26.6  91.6
##  4  6.86  47.1 Pasture Quaternary   0.49  10.9   23.4  5.64  14.6  25.9  41.2
##  5  6.84  47.1 Meadow  Sequanian    0.692  8.12  27.2 10.3   14.6  31.2  50.4
##  6  6.87  47.1 Forest  Kimmeridgian 1.75   9.12  35.5  8.36  26.4  37.7  63.2
##  7  6.85  47.1 Forest  Kimmeridgian 0.415  9.12  30.3  4.44  24.2  41    53.2
##  8  6.87  47.1 Pasture Sequanian    0.685 11.7   31.9 10.9   13.1  30.8  49.3
##  9  6.85  47.1 Meadow  Kimmeridgian 0.92  10.6   49.0 30.3   31.5  68.1 103. 
## 10  6.87  47.1 Forest  Kimmeridgian 2.12   6.36  23    7.35  14.5  54.4  72.4
## # ℹ 90 more rows

dim(jura)

## [1] 100  11

Long data frame

jura_long <- jura |> 
  pivot_longer(Cd:Zn, names_to = "element", 
               values_to = "conc")
jura_long

## # A tibble: 700 × 6
##     long   lat Landuse Rock       element  conc
##    <dbl> <dbl> <fct>   <fct>      <chr>   <dbl>
##  1  6.85  47.1 Meadow  Quaternary Cd       1.57
##  2  6.85  47.1 Meadow  Quaternary Co       8.28
##  3  6.85  47.1 Meadow  Quaternary Cr      37.1 
##  4  6.85  47.1 Meadow  Quaternary Cu      18.6 
##  5  6.85  47.1 Meadow  Quaternary Ni      18.6 
##  6  6.85  47.1 Meadow  Quaternary Pb      38.2 
##  7  6.85  47.1 Meadow  Quaternary Zn      65.2 
##  8  6.87  47.2 Meadow  Argovian   Cd       2.04
##  9  6.87  47.2 Meadow  Argovian   Co      10.8 
## 10  6.87  47.2 Meadow  Argovian   Cr      40.8 
## # ℹ 690 more rows
…
Lengthening GISTEMP Data

Wide format:

gistemp_data

## # A tibble: 145 × 19
##    Year   Jan   Feb   Mar   Apr   May   Jun   Jul   Aug   Sep   Oct   Nov   Dec `J-D` `D-N`   DJF   MAM   JJA   SON
##   <dbl> <dbl> <dbl> <dbl> <dbl> <dbl> <dbl> <dbl> <dbl> <dbl> <dbl> <dbl> <dbl> <dbl> <dbl> <dbl> <dbl> <dbl> <dbl>
## 1  1880 -0.2  -0.25 -0.09 -0.16 -0.09 -0.22 -0.19 -0.09 -0.15 -0.22 -0.22 -0.19 -0.17 NA    NA    -0.11 -0.17 -0.2 
## 2  1881 -0.2  -0.15  0.02  0.04  0.07 -0.19  0.01 -0.04 -0.16 -0.22 -0.18 -0.07 -0.09 -0.1  -0.18  0.05 -0.07 -0.19
## 3  1882  0.16  0.14  0.05 -0.16 -0.13 -0.22 -0.16 -0.07 -0.14 -0.23 -0.17 -0.36 -0.11 -0.08  0.07 -0.08 -0.15 -0.18
## 4  1883 -0.29 -0.36 -0.12 -0.18 -0.18 -0.07 -0.07 -0.14 -0.22 -0.11 -0.24 -0.11 -0.18 -0.2  -0.34 -0.16 -0.09 -0.19
## 5  1884 -0.13 -0.08 -0.36 -0.4  -0.33 -0.35 -0.31 -0.28 -0.27 -0.25 -0.33 -0.31 -0.28 -0.27 -0.11 -0.37 -0.31 -0.28
## # ℹ 140 more rows

Long format:

print(gistemp_data_long, n = 7)

## # A tibble: 1,740 × 3
##    Year month anomaly
##   <dbl> <chr>   <dbl>
## 1  1880 Jan     -0.2 
## 2  1880 Feb     -0.25
## 3  1880 Mar     -0.09
## 4  1880 Apr     -0.16
## 5  1880 May     -0.09
## 6  1880 Jun     -0.22
## 7  1880 Jul     -0.19
## # ℹ 1,733 more rows

Fancier Lengthening

billboard data set of songs on the Billboard top-100
charts for 2000

79 columns, with chart position for weeks 1–79 after it entered the
top 100.

## # A tibble: 317 × 79
##   artist     track date.entered   wk1   wk2   wk3   wk4
##   <chr>      <chr> <date>       <dbl> <dbl> <dbl> <dbl>
## 1 2 Pac      Baby… 2000-02-26      87    82    72    77
## 2 2Ge+her    The … 2000-09-02      91    87    92    NA
## 3 3 Doors D… Kryp… 2000-04-08      81    70    68    67
## 4 3 Doors D… Loser 2000-10-21      76    76    72    69
## 5 504 Boyz   Wobb… 2000-04-15      57    34    25    17
## 6 98^0       Give… 2000-08-19      51    39    34    26
## 7 A*Teens    Danc… 2000-07-08      97    97    96    95
## 8 Aaliyah    I Do… 2000-01-29      84    62    51    41
## # ℹ 309 more rows
## # ℹ 72 more variables: wk5 <dbl>, wk6 <dbl>, …
…
## [1] 5307    5

Lengthening with Multiple Variables

who2 data on tuberculosis cases

Column names:
<diagnosis>_<sex>_<age group>

## # A tibble: 7,240 × 58
##    country  year sp_m_014 sp_m_1524 sp_m_2534 sp_m_3544
##    <chr>   <dbl>    <dbl>     <dbl>     <dbl>     <dbl>
##  1 Afghan…  1980       NA        NA        NA        NA
##  2 Afghan…  1981       NA        NA        NA        NA
##  3 Afghan…  1982       NA        NA        NA        NA
##  4 Afghan…  1983       NA        NA        NA        NA
##  5 Afghan…  1984       NA        NA        NA        NA
##  6 Afghan…  1985       NA        NA        NA        NA
##  7 Afghan…  1986       NA        NA        NA        NA
##  8 Afghan…  1987       NA        NA        NA        NA
##  9 Afghan…  1988       NA        NA        NA        NA
## 10 Afghan…  1989       NA        NA        NA        NA
## 11 Afghan…  1990       NA        NA        NA        NA
## 12 Afghan…  1991       NA        NA        NA        NA
## 13 Afghan…  1992       NA        NA        NA        NA
## 14 Afghan…  1993       NA        NA        NA        NA
## 15 Afghan…  1994       NA        NA        NA        NA
## 16 Afghan…  1995       NA        NA        NA        NA
## 17 Afghan…  1996       NA        NA        NA        NA
## 18 Afghan…  1997        0        10         6         3
## # ℹ 7,222 more rows
## # ℹ 52 more variables: sp_m_4554 <dbl>, …

who_long <- who2 |> 
  pivot_longer(cols = !(country:year), 
               names_to = c("diagnosis", "sex", "age"),
               names_sep = "_",
               values_to = "count")
print(who_long, n = 15)

## # A tibble: 405,440 × 6
##    country      year diagnosis sex   age   count
##    <chr>       <dbl> <chr>     <chr> <chr> <dbl>
##  1 Afghanistan  1980 sp        m     014      NA
##  2 Afghanistan  1980 sp        m     1524     NA
##  3 Afghanistan  1980 sp        m     2534     NA
##  4 Afghanistan  1980 sp        m     3544     NA
##  5 Afghanistan  1980 sp        m     4554     NA
##  6 Afghanistan  1980 sp        m     5564     NA
##  7 Afghanistan  1980 sp        m     65       NA
##  8 Afghanistan  1980 sp        f     014      NA
##  9 Afghanistan  1980 sp        f     1524     NA
## 10 Afghanistan  1980 sp        f     2534     NA
## 11 Afghanistan  1980 sp        f     3544     NA
## 12 Afghanistan  1980 sp        f     4554     NA
## 13 Afghanistan  1980 sp        f     5564     NA
## 14 Afghanistan  1980 sp        f     65       NA
## 15 Afghanistan  1980 sn        m     014      NA
## # ℹ 405,425 more rows

Widening Data

Widening Data

Widening jura_long

## # A tibble: 700 × 6
##     long   lat Landuse Rock       element   conc
##    <dbl> <dbl> <fct>   <fct>      <chr>    <dbl>
##  1  6.85  47.1 Meadow  Quaternary Cd        1.57
##  2  6.85  47.1 Meadow  Quaternary Co        8.28
##  3  6.85  47.1 Meadow  Quaternary Cr       37.1 
##  4  6.85  47.1 Meadow  Quaternary Cu       18.6 
##  5  6.85  47.1 Meadow  Quaternary Ni       18.6 
##  6  6.85  47.1 Meadow  Quaternary Pb       38.2 
##  7  6.85  47.1 Meadow  Quaternary Zn       65.2 
##  8  6.87  47.2 Meadow  Argovian   Cd        2.04
##  9  6.87  47.2 Meadow  Argovian   Co       10.8 
## 10  6.87  47.2 Meadow  Argovian   Cr       40.8 
## 11  6.87  47.2 Meadow  Argovian   Cu       11.5 
## 12  6.87  47.2 Meadow  Argovian   Ni       21.5 
## 13  6.87  47.2 Meadow  Argovian   Pb       33.4 
## 14  6.87  47.2 Meadow  Argovian   Zn      113.  
## 15  6.87  47.2 Pasture Argovian   Cd        1.20
## 16  6.87  47.2 Pasture Argovian   Co       12   
## 17  6.87  47.2 Pasture Argovian   Cr       53.2 
## 18  6.87  47.2 Pasture Argovian   Cu       13.0 
## 19  6.87  47.2 Pasture Argovian   Ni       23.9 
## 20  6.87  47.2 Pasture Argovian   Pb       26.6 
## 21  6.87  47.2 Pasture Argovian   Zn       91.6 
## 22  6.86  47.1 Pasture Quaternary Cd        0.49
## 23  6.86  47.1 Pasture Quaternary Co       10.9 
## # ℹ 677 more rows
…
